%YAML 1.1
%TAG !u! tag:unity3d.com,2011:
--- !u!1045 &1
EditorBuildSettings:
  m_ObjectHideFlags: 0
  serializedVersion: 2
  m_Scenes:
  - enabled: 1
    path: Assets/Scenes/persistence.unity
    guid: f9bae8474e4ce144185aa4bcca213529
  - enabled: 1
    path: Assets/Scenes/MainMenu.unity
    guid: 9a3540cd6427f9945bef8c790c7888c6
  - enabled: 1
    path: Assets/Scenes/SampleScene.unity
    guid: 2cda990e2423bbf4892e6590ba056729
  m_configObjects: {}
